{
    "watchForFileChanges" : false,
    "video": false,
    "screenshotOnRunFailure": true,
    "trashAssetsBeforeRuns": true,
    "retries": {
        "runMode": 2,
        "openMode": 2
    },
    "numTestsKeptInMemory": 0,
    "defaultCommandTimeout" : 120000
}
